…
    AgentBasedModel with 220 agents of type Plankton
     space: periodic continuous space with (70.0, 70.0) extent and spacing=3.5 with velocity updates
     scheduler: Agents.Schedulers.Randomly

``` julia
agent_df, _ = run!(
    model, agent_step!, 200,
    adata=[:group]
)
```

    (37750×3 DataFrame
       Row │ step   id     group
           │ Int64  Int64  Symbol
    ───────┼──────────────────────
         1 │     0      1  phyto
         2 │     0      2  phyto
         3 │     0      3  phyto
         4 │     0      4  phyto
         5 │     0      5  phyto
         6 │     0      6  phyto
         7 │     0      7  phyto
         8 │     0      8  phyto
       ⋮   │   ⋮      ⋮      ⋮
     37744 │   200   2166  phyto
     37745 │   200   2167  phyto
     37746 │   200   2168  phyto
     37747 │   200   2169  phyto
     37748 │   200   2170  phyto
     37749 │   200   2171  phyto
     37750 │   200   2172  phyto
                37735 rows omitted, 0×0 DataFrame)
…
